﻿Algorithm;Correlation coefficient;Mean absolute error;Root mean squared error;Relative absolute error;Root relative squared error
ZeroR;-1;2,06;2,47;100%;100%
M5Rules;0,54;1,44;2,73;69,86%;110,54%
DecisionTable;0,62;1,18;2,01;57,56%;81,55%
DecisionStump;0,5;1,62;2,11;78,91%;85,66%
M5P;0,62;1,19;2,02;58,03%;81,99%
RandomForest;0,69;1,3;1,82;63,01%;73,66%
IBk;0,61;1,15;2,12;55,91%;86,03%
GaussianProcesses;0,61;1,33;2;64,72%;80,85%
LinearRegression;0,57;1,91;2,95;92,80%;119,55%
SMOreg;0,69;1,2;1,88;58,26%;76,00%
