Algorithm;Relative.absolute.error;status
SMOreg;188.44;not_merged
Linear Regression;143.91;not_merged
GaussianProcessess;117.16;not_merged
SMOreg;165.65;merged
GaussianProcessess;120.91;merged
Linear Regression;143.29;merged