﻿Algorithm;Correlation.coefficient;Mean.absolute.error;Root.mean.squared.error;Relative.absolute.error;Root.relative.squared.error
ZeroR;0;2,03;2,43;100%;100%
M5P;0,99;0,16;0,33;7,99%;13,63%
RandomForest;0,99;0,73;0,89;36,20%;36,72%
RandomTree;1;0;0;0%;0%
REPTree;0;2,03;2,43;100%;100%
LinearRegression;1;0;0;0%;0%
GaussianProcesses;0,99;0,2;0,24;9,67%;10,00%
MultiLayerPerceptron;0,47;5,12;5,55;252,65%;228,51%
SMOreg;1;0,01;0,01;0,41%;0,38%
IBk;1;0;0;0,00%;0,00%
M5Rules;0,99;0,11;0,28;5,65%;11,35%
DecisionStump;0,46;1,83;2,16;90,13%;88,70%
DecisionTable;0,99;0,07;0,22;3,34%;9,08%
