﻿Algorithm;Correlation.coefficient;Mean.absolute.error;Root.mean.squared.error;Relative.absolute.error;Root.relative.squared.error
ZeroR;-0,44;2,07;2,49;100%;100%
M5P;0,15;1,96;2,44;94,76%;98,32%
RandomForest;0,08;1,99;2,43;96,05%;97,59%
RandomTree;0,01;2,02;2,57;97,64%;103,58%
REPTree;-0,44;2,07;2,49;100%;100%
LinearRegression;-0,15;2,06;2,52;99,15%;101,27%
GaussianProcesses;-0,05;2,06;2,61;99,52%;104,81%
MultiLayerPerceptron;-0,04;2,18;2,78;105,34%;111,68%
SMOreg;-0,05;2,06;2,62;99,54%;105,60%
IBk;0,01;2,43;3,32;117,30%;133,55%
M5Rules;0,01;2,05;2,51;98,80%;100,10%
DecisionStump;0,11;2,07;2,5;100%;100,44%
DecisionTable;0,01;2,16;2,78;104,32%;111,74%
