﻿Algorithm;TP.Rate;FP.Rate;Precision;Recall;F-Measure;ROC
ZeroR;0,462;0,544;0,453;0,462;0,444;0,445
OneR;1;0;1;1;1;1
NaiveBayes;1;0;1;1;1;1
SMO;1;0;1;1;1;1
SimpleLogistics;1;0;1;1;1;1
IBk;0,923;0,079;0,933;0,923;0,923;0,911
J48;1;0;1;1;1;1
RandomForest;1;0;1;1;1;1
