Algorithm;Correlation coefficient;Mean absolute error;Root mean squared error;Relative absolute error;Root relative squared error
ZeroR;-1;1.7261;2.1114;100%;100%
M5P;0.15;2.01;2.33;116.69%;110.49%
RandomForest;0.40;1.54;1.89;89.07%;89.30%
RandomTree;0.10;2.01;2.58;116.60%;122.19%
REPTree;0.10;1.64;2.04;95.21%;96.64%
LinearRegression;0.33;1.55;1.98;89.97%;93.87%
GaussianProcesses;0.81;0.95;1.20;54.79%;57.05%
MultilayerPerceptron;0.68;1.38;1.77;80.00%;83.82%
SMOreg;0.83;0.87;1.18;50.39%;55.98%
Ibk;0.34;1.43;2.02;83.07%;95.89%
M5Rules;0.18;1.83;2.30;105.73%;109.04%
DecisionStump;-0.05;1.90;2.35;110.04%;111.39%